5 Multiple Regression I: Grundlagen linearer Modelle | How 2 do Things with even more Numbers
…
Die PerfektionistInnen haben es bereits erkannt: Wien wird wieder als Summe seiner Stadtbezirke dargestellt. Ein Blick in den Geodatensatz verrät uns …

bez %>%
  filter(id >= 900)

## Simple feature collection with 24 features and 2 fields
## Geometry type: MULTIPOLYGON
## Dimension:     XY
## Bounding box:  xmin: 611820.2 ymin: 473150.1 xmax: 641316 ymax: 496035.8
## Projected CRS: MGI / Austria Lambert
## # A tibble: 24 x 3
##       id name                                   geometry
##  * <int> <chr>                        <MULTIPOLYGON [m]>
##  1   900 Wien(Stadt)           (((633092.9 476663.5, 63~
##  2   901 Wien  1.,Innere Stadt (((625604.8 482342.7, 62~
##  3   902 Wien  2.,Leopoldstadt (((626800.3 483669.1, 62~
##  4   903 Wien  3.,Landstraße   (((629078 480766.2, 6290~
##  5   904 Wien  4.,Wieden       (((625990.5 480617.3, 62~
##  6   905 Wien  5.,Margareten   (((625375.6 480306.9, 62~
##  7   906 Wien  6.,Mariahilf    (((623857.6 480935.6, 62~
##  8   907 Wien  7.,Neubau       (((623411.1 481718.7, 62~
##  9   908 Wien  8.,Josefstadt   (((624396.9 482942.4, 62~
## 10   909 Wien  9.,Alsergrund   (((624209.9 483872.5, 62~
## # ... with 14 more rows
…
