8 Clusteranalyse II: Gemischtskalige Modelle | How 2 do Things with even more Numbers
…
In einem ersten Schritt laden wir nun unsere Geometriedaten und wandeln die (warum auch immer 🤔) als Text ablegte Gemeindekennzahl in eine Zahl um:

gem <- read_sf("data/gem/STATISTIK_AUSTRIA_GEM_20210101.shp")
gem$id <- as.integer(gem$id)

Aus den Erfahrungen der Einheit 5 überprüfen wir, ob die Wiener Gemeindebezirke in diesem Datensatz enthalten sind:

tail(gem, 30)

## Simple feature collection with 30 features and 2 fields
## Geometry type: MULTIPOLYGON
## Dimension:     XY
## Bounding box:  xmin: 119478.4 ymin: 372552.6 xmax: 641316 ymax: 496035.8
## Projected CRS: MGI / Austria Lambert
## # A tibble: 30 x 3
##       id name                                   geometry
##    <int> <chr>                        <MULTIPOLYGON [m]>
##  1 80418 Schlins           (((124784.9 374581.2, 124815~
##  2 80419 Schnifis          (((129296.6 377219.3, 129312~
##  3 80420 Sulz              (((122064.5 383205.8, 122066~
##  4 80421 Übersaxen         (((123159.8 380528.3, 123185~
##  5 80422 Viktorsberg       (((131359.5 384754.9, 131331~
##  6 80423 Weiler            (((122698.4 386159.5, 122731~
##  7 80424 Zwischenwasser    (((127523.5 381575.9, 127490~
##  8 90101 Wien-Innere Stadt (((625604.8 482342.7, 625602~
##  9 90201 Wien-Leopoldstadt (((626800.3 483669.1, 626762~
## 10 90301 Wien-Landstraße   (((629078 480766.2, 629075.5~
## # ... with 20 more rows
…
