10 @Home3: Clusteranalyse | How 2 do Things with even more Numbers
…
Wiens Jugend und Hunde - eine oftmals spannungsvolle Beziehung

(Quelle: o.V.)

10.2 Datengrundlage

Um die Wahrscheinlichkeit solcher Konflikte näher zu untersuchen, bietet die Datei 🔽 atHome3_Wien_v1.xlsx 🔽 einige Strukturdaten der Wiener Gemeindebezirke:

## # A tibble: 23 x 6
##      bez bez_txt         freifl_dichte hunzi_dichte
##    <dbl> <chr>                   <dbl>        <dbl>
##  1     1 1. Innere Stadt        1.70           30.1
##  2     2 2. Leopoldstadt        4.41           23.7
##  3     3 3. Landstraße          1.05           23.7
##  4     4 4. Wieden              0.364          19.7
##  5     5 5. Margareten          0.152          16.9
##  6     6 6. Mariahilf           0.0948         20.2
##  7     7 7. Neubau              0.116          18.2
##  8     8 8. Josefstadt          0.0799         19.2
##  9     9 9. Alsergrund          0.497          21.3
## 10    10 10. Favoriten          2.17           24.7
## # ... with 13 more rows, and 2 more variables:
## #   Jugend_dichte <dbl>, wohn_dichte <dbl>
…
